[  
   {  
      "id_aluno_matr_status":3,
      "descricao":"Desistente",
      "flg_status_ativo":false
   },
   {  
      "id_aluno_matr_status":4,
      "descricao":"Falecido",
      "flg_status_ativo":false
   },
   {  
      "id_aluno_matr_status":5,
      "descricao":"Reclassificado",
      "flg_status_ativo":false
   },
   {  
      "id_aluno_matr_status":6,
      "descricao":"Transferido",
      "flg_status_ativo":false
   },
   {  
      "id_aluno_matr_status":9,
      "descricao":"Remanejado",
      "flg_status_ativo":false
   },
   {  
      "id_aluno_matr_status":8,
      "descricao":"Não frequente",
      "flg_status_ativo":false
   },
   {  
      "id_aluno_matr_status":2,
      "descricao":"Concluído",
      "flg_status_ativo":true
   },
   {  
      "id_aluno_matr_status":7,
      "descricao":"Concluinte",
      "flg_status_ativo":true
   },
   {  
      "id_aluno_matr_status":1,
      "descricao":"Matriculado",
      "flg_status_ativo":true
   }
]