[  
   {  
      "chamada":1,
      "id_turma":150000324,
      "data_enturmacao":"2015-03-04T13:21:30.639Z",
      "id_aluno_matricula":1964937,
      "id_serie_enturmacao":1766
   },
   {  
      "chamada":2,
      "id_turma":150000324,
      "data_enturmacao":"2015-03-04T13:21:30.647Z",
      "id_aluno_matricula":1964936,
      "id_serie_enturmacao":1766
   },
   {  
      "chamada":3,
      "id_turma":150000324,
      "data_enturmacao":"2015-03-04T13:21:30.654Z",
      "id_aluno_matricula":1964948,
      "id_serie_enturmacao":1766
   },
   {  
      "chamada":4,
      "id_turma":150000324,
      "data_enturmacao":"2015-03-04T13:21:30.662Z",
      "id_aluno_matricula":1964822,
      "id_serie_enturmacao":1766
   },
   {  
      "chamada":5,
      "id_turma":150000324,
      "data_enturmacao":"2015-03-04T13:21:30.670Z",
      "id_aluno_matricula":1964947,
      "id_serie_enturmacao":1766
   },
   {  
      "chamada":6,
      "id_turma":150000324,
      "data_enturmacao":"2015-03-04T13:21:30.677Z",
      "id_aluno_matricula":1964949,
      "id_serie_enturmacao":1766
   },
   {  
      "chamada":7,
      "id_turma":150000324,
      "data_enturmacao":"2015-03-04T13:21:30.685Z",
      "id_aluno_matricula":1964950,
      "id_serie_enturmacao":1766
   },
   {  
      "chamada":8,
      "id_turma":150000324,
      "data_enturmacao":"2015-03-04T13:21:30.693Z",
      "id_aluno_matricula":1964845,
      "id_serie_enturmacao":1766
   },
   {  
      "chamada":9,
      "id_turma":150000324,
      "data_enturmacao":"2015-03-04T13:21:30.701Z",
      "id_aluno_matricula":1964938,
      "id_serie_enturmacao":1766
   },
   {  
      "chamada":10,
      "id_turma":150000324,
      "data_enturmacao":"2015-03-04T13:21:30.708Z",
      "id_aluno_matricula":1964852,
      "id_serie_enturmacao":1766
   },
   {  
      "chamada":11,
      "id_turma":150000324,
      "data_enturmacao":"2015-03-04T13:21:30.716Z",
      "id_aluno_matricula":1964827,
      "id_serie_enturmacao":1766
   },
   {  
      "chamada":12,
      "id_turma":150000324,
      "data_enturmacao":"2015-03-04T13:21:30.723Z",
      "id_aluno_matricula":1964939,
      "id_serie_enturmacao":1766
   },
   {  
      "chamada":13,
      "id_turma":150000324,
      "data_enturmacao":"2015-03-04T13:21:30.731Z",
      "id_aluno_matricula":1964943,
      "id_serie_enturmacao":1766
   },
   {  
      "chamada":14,
      "id_turma":150000324,
      "data_enturmacao":"2015-03-04T13:21:30.738Z",
      "id_aluno_matricula":1964935,
      "id_serie_enturmacao":1766
   },
   {  
      "chamada":15,
      "id_turma":150000324,
      "data_enturmacao":"2015-03-05T03:00:00.000Z",
      "id_aluno_matricula":1980884,
      "id_serie_enturmacao":1766
   },
   {  
      "chamada":16,
      "id_turma":150000324,
      "data_enturmacao":"2015-03-04T13:21:30.746Z",
      "id_aluno_matricula":1964942,
      "id_serie_enturmacao":1766
   },
   {  
      "chamada":17,
      "id_turma":150000324,
      "data_enturmacao":"2015-03-04T13:21:30.753Z",
      "id_aluno_matricula":1964934,
      "id_serie_enturmacao":1766
   },
   {  
      "chamada":18,
      "id_turma":150000324,
      "data_enturmacao":"2015-03-04T13:21:30.761Z",
      "id_aluno_matricula":1964940,
      "id_serie_enturmacao":1766
   },
   {  
      "chamada":19,
      "id_turma":150000324,
      "data_enturmacao":"2015-03-04T13:21:30.768Z",
      "id_aluno_matricula":1964825,
      "id_serie_enturmacao":1766
   },
   {  
      "chamada":20,
      "id_turma":150000324,
      "data_enturmacao":"2015-03-04T13:21:30.776Z",
      "id_aluno_matricula":1964830,
      "id_serie_enturmacao":1766
   },
   {  
      "chamada":21,
      "id_turma":150000324,
      "data_enturmacao":"2015-03-04T13:21:30.783Z",
      "id_aluno_matricula":1964944,
      "id_serie_enturmacao":1766
   },
   {  
      "chamada":22,
      "id_turma":150000324,
      "data_enturmacao":"2015-03-04T13:21:30.791Z",
      "id_aluno_matricula":1964946,
      "id_serie_enturmacao":1766
   },
   {  
      "chamada":23,
      "id_turma":150000324,
      "data_enturmacao":"2015-04-14T12:18:35.417Z",
      "id_aluno_matricula":1993675,
      "id_serie_enturmacao":1766
   },
   {  
      "chamada":24,
      "id_turma":150000324,
      "data_enturmacao":"2015-04-14T12:21:40.531Z",
      "id_aluno_matricula":1993676,
      "id_serie_enturmacao":1766
   },
   {  
      "chamada":25,
      "id_turma":150000324,
      "data_enturmacao":"2015-04-14T12:24:17.617Z",
      "id_aluno_matricula":1993678,
      "id_serie_enturmacao":1766
   }
]