[  
   {  
      "id_motivo_dia_letivo_extra":null,
      "id_motivo_dia_nao_letivo":184,
      "id_calendario":1840,
      "id_motivo_evento":null,
      "data":"2014-03-03T03:00:00.000Z"
   },
   {  
      "id_motivo_dia_letivo_extra":null,
      "id_motivo_dia_nao_letivo":184,
      "id_calendario":1840,
      "id_motivo_evento":null,
      "data":"2014-03-04T03:00:00.000Z"
   },
   {  
      "id_motivo_dia_letivo_extra":null,
      "id_motivo_dia_nao_letivo":184,
      "id_calendario":1840,
      "id_motivo_evento":null,
      "data":"2014-03-05T03:00:00.000Z"
   },
   {  
      "id_motivo_dia_letivo_extra":null,
      "id_motivo_dia_nao_letivo":185,
      "id_calendario":1840,
      "id_motivo_evento":null,
      "data":"2014-03-30T03:00:00.000Z"
   },
   {  
      "id_motivo_dia_letivo_extra":null,
      "id_motivo_dia_nao_letivo":186,
      "id_calendario":1840,
      "id_motivo_evento":null,
      "data":"2014-04-17T03:00:00.000Z"
   },
   {  
      "id_motivo_dia_letivo_extra":null,
      "id_motivo_dia_nao_letivo":186,
      "id_calendario":1840,
      "id_motivo_evento":null,
      "data":"2014-04-18T03:00:00.000Z"
   },
   {  
      "id_motivo_dia_letivo_extra":null,
      "id_motivo_dia_nao_letivo":187,
      "id_calendario":1840,
      "id_motivo_evento":null,
      "data":"2014-04-21T03:00:00.000Z"
   },
   {  
      "id_motivo_dia_letivo_extra":null,
      "id_motivo_dia_nao_letivo":189,
      "id_calendario":1840,
      "id_motivo_evento":null,
      "data":"2014-05-01T03:00:00.000Z"
   },
   {  
      "id_motivo_dia_letivo_extra":null,
      "id_motivo_dia_nao_letivo":192,
      "id_calendario":1840,
      "id_motivo_evento":null,
      "data":"2014-09-07T03:00:00.000Z"
   },
   {  
      "id_motivo_dia_letivo_extra":null,
      "id_motivo_dia_nao_letivo":193,
      "id_calendario":1840,
      "id_motivo_evento":null,
      "data":"2014-09-29T03:00:00.000Z"
   },
   {  
      "id_motivo_dia_letivo_extra":null,
      "id_motivo_dia_nao_letivo":194,
      "id_calendario":1840,
      "id_motivo_evento":null,
      "data":"2014-10-12T03:00:00.000Z"
   },
   {  
      "id_motivo_dia_letivo_extra":null,
      "id_motivo_dia_nao_letivo":196,
      "id_calendario":1840,
      "id_motivo_evento":null,
      "data":"2014-10-15T03:00:00.000Z"
   },
   {  
      "id_motivo_dia_letivo_extra":null,
      "id_motivo_dia_nao_letivo":197,
      "id_calendario":1840,
      "id_motivo_evento":null,
      "data":"2014-10-28T02:00:00.000Z"
   },
   {  
      "id_motivo_dia_letivo_extra":null,
      "id_motivo_dia_nao_letivo":198,
      "id_calendario":1840,
      "id_motivo_evento":null,
      "data":"2014-11-11T02:00:00.000Z"
   },
   {  
      "id_motivo_dia_letivo_extra":null,
      "id_motivo_dia_nao_letivo":199,
      "id_calendario":1840,
      "id_motivo_evento":null,
      "data":"2014-11-15T02:00:00.000Z"
   },
   {  
      "id_motivo_dia_letivo_extra":null,
      "id_motivo_dia_nao_letivo":184,
      "id_calendario":1889,
      "id_motivo_evento":null,
      "data":"2015-02-16T02:00:00.000Z"
   },
   {  
      "id_motivo_dia_letivo_extra":null,
      "id_motivo_dia_nao_letivo":184,
      "id_calendario":1889,
      "id_motivo_evento":null,
      "data":"2015-02-17T02:00:00.000Z"
   },
   {  
      "id_motivo_dia_letivo_extra":null,
      "id_motivo_dia_nao_letivo":184,
      "id_calendario":1889,
      "id_motivo_evento":null,
      "data":"2015-02-18T02:00:00.000Z"
   },
   {  
      "id_motivo_dia_letivo_extra":null,
      "id_motivo_dia_nao_letivo":185,
      "id_calendario":1889,
      "id_motivo_evento":null,
      "data":"2015-03-30T03:00:00.000Z"
   },
   {  
      "id_motivo_dia_letivo_extra":null,
      "id_motivo_dia_nao_letivo":186,
      "id_calendario":1889,
      "id_motivo_evento":null,
      "data":"2015-04-02T03:00:00.000Z"
   },
   {  
      "id_motivo_dia_letivo_extra":null,
      "id_motivo_dia_nao_letivo":186,
      "id_calendario":1889,
      "id_motivo_evento":null,
      "data":"2015-04-03T03:00:00.000Z"
   },
   {  
      "id_motivo_dia_letivo_extra":null,
      "id_motivo_dia_nao_letivo":187,
      "id_calendario":1889,
      "id_motivo_evento":null,
      "data":"2015-04-21T03:00:00.000Z"
   },
   {  
      "id_motivo_dia_letivo_extra":null,
      "id_motivo_dia_nao_letivo":189,
      "id_calendario":1889,
      "id_motivo_evento":null,
      "data":"2015-05-01T03:00:00.000Z"
   },
   {  
      "id_motivo_dia_letivo_extra":null,
      "id_motivo_dia_nao_letivo":190,
      "id_calendario":1889,
      "id_motivo_evento":null,
      "data":"2015-06-04T03:00:00.000Z"
   },
   {  
      "id_motivo_dia_letivo_extra":null,
      "id_motivo_dia_nao_letivo":191,
      "id_calendario":1889,
      "id_motivo_evento":null,
      "data":"2015-06-24T03:00:00.000Z"
   },
   {  
      "id_motivo_dia_letivo_extra":null,
      "id_motivo_dia_nao_letivo":192,
      "id_calendario":1889,
      "id_motivo_evento":null,
      "data":"2015-09-07T03:00:00.000Z"
   },
   {  
      "id_motivo_dia_letivo_extra":null,
      "id_motivo_dia_nao_letivo":193,
      "id_calendario":1889,
      "id_motivo_evento":null,
      "data":"2015-09-29T03:00:00.000Z"
   },
   {  
      "id_motivo_dia_letivo_extra":null,
      "id_motivo_dia_nao_letivo":194,
      "id_calendario":1889,
      "id_motivo_evento":null,
      "data":"2015-10-12T03:00:00.000Z"
   },
   {  
      "id_motivo_dia_letivo_extra":null,
      "id_motivo_dia_nao_letivo":196,
      "id_calendario":1889,
      "id_motivo_evento":null,
      "data":"2015-10-15T03:00:00.000Z"
   },
   {  
      "id_motivo_dia_letivo_extra":null,
      "id_motivo_dia_nao_letivo":197,
      "id_calendario":1889,
      "id_motivo_evento":null,
      "data":"2015-10-28T02:00:00.000Z"
   },
   {  
      "id_motivo_dia_letivo_extra":null,
      "id_motivo_dia_nao_letivo":198,
      "id_calendario":1889,
      "id_motivo_evento":null,
      "data":"2015-11-02T02:00:00.000Z"
   },
   {  
      "id_motivo_dia_letivo_extra":null,
      "id_motivo_dia_nao_letivo":200,
      "id_calendario":1889,
      "id_motivo_evento":null,
      "data":"2015-11-15T02:00:00.000Z"
   }
]