[  
   {  
      "id_componente_curricular":23245,
      "qtd_aulas_semanal":2,
      "flg_aponta_notas":true,
      "id_disciplina":1427,
      "id_grade_curricular":2713,
      "id_tipo_atribuicao_componente":2,
      "flg_aponta_faltas":true,
      "flg_aponta_conteudo_curricular":false
   },
   {  
      "id_componente_curricular":22781,
      "qtd_aulas_semanal":2,
      "flg_aponta_notas":true,
      "id_disciplina":1427,
      "id_grade_curricular":2662,
      "id_tipo_atribuicao_componente":2,
      "flg_aponta_faltas":true,
      "flg_aponta_conteudo_curricular":true
   },
   {  
      "id_componente_curricular":22851,
      "qtd_aulas_semanal":2,
      "flg_aponta_notas":true,
      "id_disciplina":1427,
      "id_grade_curricular":2667,
      "id_tipo_atribuicao_componente":2,
      "flg_aponta_faltas":true,
      "flg_aponta_conteudo_curricular":true
   },
   {  
      "id_componente_curricular":22813,
      "qtd_aulas_semanal":2,
      "flg_aponta_notas":true,
      "id_disciplina":1427,
      "id_grade_curricular":2661,
      "id_tipo_atribuicao_componente":2,
      "flg_aponta_faltas":true,
      "flg_aponta_conteudo_curricular":true
   },
   {  
      "id_componente_curricular":23248,
      "qtd_aulas_semanal":6,
      "flg_aponta_notas":true,
      "id_disciplina":1419,
      "id_grade_curricular":2713,
      "id_tipo_atribuicao_componente":2,
      "flg_aponta_faltas":true,
      "flg_aponta_conteudo_curricular":false
   },
   {  
      "id_componente_curricular":23237,
      "qtd_aulas_semanal":2,
      "flg_aponta_notas":true,
      "id_disciplina":1427,
      "id_grade_curricular":2712,
      "id_tipo_atribuicao_componente":2,
      "flg_aponta_faltas":true,
      "flg_aponta_conteudo_curricular":false
   },
   {  
      "id_componente_curricular":23240,
      "qtd_aulas_semanal":6,
      "flg_aponta_notas":true,
      "id_disciplina":1419,
      "id_grade_curricular":2712,
      "id_tipo_atribuicao_componente":2,
      "flg_aponta_faltas":true,
      "flg_aponta_conteudo_curricular":false
   },
   {  
      "id_componente_curricular":22843,
      "qtd_aulas_semanal":2,
      "flg_aponta_notas":true,
      "id_disciplina":1427,
      "id_grade_curricular":2666,
      "id_tipo_atribuicao_componente":2,
      "flg_aponta_faltas":true,
      "flg_aponta_conteudo_curricular":true
   }
]