[  
   {  
      "id_motivo_dia_nao_letivo":183,
      "descricao":"CONFRATERNIZAÇÃO UNIVERSAL",
      "flg_ativo":true,
      "legenda":"CFU"
   },
   {  
      "id_motivo_dia_nao_letivo":184,
      "descricao":"CARNAVAL",
      "flg_ativo":true,
      "legenda":"CAR"
   },
   {  
      "id_motivo_dia_nao_letivo":185,
      "descricao":"EMANCIPAÇÃO DE IPOJUCA",
      "flg_ativo":true,
      "legenda":"EMI"
   },
   {  
      "id_motivo_dia_nao_letivo":186,
      "descricao":"PAIXÃO DE CRISTO",
      "flg_ativo":true,
      "legenda":"PXC"
   },
   {  
      "id_motivo_dia_nao_letivo":187,
      "descricao":"TIRADENTES",
      "flg_ativo":true,
      "legenda":"TIR"
   },
   {  
      "id_motivo_dia_nao_letivo":189,
      "descricao":"DIA DO TRABALHADOR",
      "flg_ativo":true,
      "legenda":"DTR"
   },
   {  
      "id_motivo_dia_nao_letivo":190,
      "descricao":"CORPUS CHRISTI",
      "flg_ativo":true,
      "legenda":"CPC"
   },
   {  
      "id_motivo_dia_nao_letivo":191,
      "descricao":"SÃO JOÃO",
      "flg_ativo":true,
      "legenda":"SJ "
   },
   {  
      "id_motivo_dia_nao_letivo":192,
      "descricao":"INDEPENDÊNCIA DO BRASIL",
      "flg_ativo":true,
      "legenda":"IB "
   },
   {  
      "id_motivo_dia_nao_letivo":193,
      "descricao":"SÃO MIGUEL",
      "flg_ativo":true,
      "legenda":"SM "
   },
   {  
      "id_motivo_dia_nao_letivo":194,
      "descricao":"NOSSA SENHORA APARECIDA - PADROEIRA DO BRASIL",
      "flg_ativo":true,
      "legenda":"NSA"
   },
   {  
      "id_motivo_dia_nao_letivo":195,
      "descricao":"FÉRIAS",
      "flg_ativo":true,
      "legenda":"FER"
   },
   {  
      "id_motivo_dia_nao_letivo":196,
      "descricao":"DIA DO PROFESSOR",
      "flg_ativo":true,
      "legenda":"DPR"
   },
   {  
      "id_motivo_dia_nao_letivo":197,
      "descricao":"DIA DO FUNCIONÁRIO PÚBLICO",
      "flg_ativo":true,
      "legenda":"DFP"
   },
   {  
      "id_motivo_dia_nao_letivo":198,
      "descricao":"FINADOS",
      "flg_ativo":true,
      "legenda":"FIN"
   },
   {  
      "id_motivo_dia_nao_letivo":199,
      "descricao":"PROCLAMAÇÃO DA REPÚBLICA",
      "flg_ativo":true,
      "legenda":"PR "
   },
   {  
      "id_motivo_dia_nao_letivo":200,
      "descricao":"NATAL",
      "flg_ativo":true,
      "legenda":"NT "
   },
   {  
      "id_motivo_dia_nao_letivo":201,
      "descricao":"RECESSO ESCOLAR",
      "flg_ativo":true,
      "legenda":"RCE"
   },
   {  
      "id_motivo_dia_nao_letivo":202,
      "descricao":"FERIADO",
      "flg_ativo":true,
      "legenda":"FR "
   },
   {  
      "id_motivo_dia_nao_letivo":203,
      "descricao":"FORMAÇÃO CONTINUADA/PLANEJAMENTO",
      "flg_ativo":true,
      "legenda":"FC "
   },
   {  
      "id_motivo_dia_nao_letivo":204,
      "descricao":"NOVAS OPORTUNIDADES APRENDIZAGENS",
      "flg_ativo":true,
      "legenda":"NOA"
   },
   {  
      "id_motivo_dia_nao_letivo":205,
      "descricao":"PONTO FACULTATIVO",
      "flg_ativo":true,
      "legenda":"PF "
   },
   {  
      "id_motivo_dia_nao_letivo":206,
      "descricao":"ORGANIZAÇÃO ESCOLAR",
      "flg_ativo":true,
      "legenda":"OE "
   },
   {  
      "id_motivo_dia_nao_letivo":207,
      "descricao":"SÁBADOS  E DOMINGOS",
      "flg_ativo":true,
      "legenda":"SD "
   },
   {  
      "id_motivo_dia_nao_letivo":208,
      "descricao":"CALAMIDADE PÚBLICA",
      "flg_ativo":true,
      "legenda":"CP "
   },
   {  
      "id_motivo_dia_nao_letivo":209,
      "descricao":"GREVE",
      "flg_ativo":true,
      "legenda":"GR "
   },
   {  
      "id_motivo_dia_nao_letivo":211,
      "descricao":"PARALISAÇÃO",
      "flg_ativo":true,
      "legenda":"PRL"
   },
   {  
      "id_motivo_dia_nao_letivo":212,
      "descricao":"INFRAESTRUTURA",
      "flg_ativo":true,
      "legenda":"INF"
   },
   {  
      "id_motivo_dia_nao_letivo":213,
      "descricao":"SITUAÇÃO DE EMERGÊNCIA",
      "flg_ativo":true,
      "legenda":"SE "
   },
   {  
      "id_motivo_dia_nao_letivo":214,
      "descricao":"REUNIÃO DOS PAIS",
      "flg_ativo":true,
      "legenda":"RP "
   },
   {  
      "id_motivo_dia_nao_letivo":215,
      "descricao":"CHUVA FORTE /ALAGAMENTO",
      "flg_ativo":true,
      "legenda":"CFA"
   }
]